<?xml version="1.0" encoding="UTF-8" standalone="no"?>
<!-- Created with Inkscape (http://www.inkscape.org/) -->

<svg
   xmlns:dc="http://purl.org/dc/elements/1.1/"
   xmlns:cc="http://creativecommons.org/ns#"
   xmlns:rdf="http://www.w3.org/1999/02/22-rdf-syntax-ns#"
   xmlns:svg="http://www.w3.org/2000/svg"
   xmlns="http://www.w3.org/2000/svg"
   xmlns:sodipodi="http://sodipodi.sourceforge.net/DTD/sodipodi-0.dtd"
   xmlns:inkscape="http://www.inkscape.org/namespaces/inkscape"
   version="1.1"
   id="svg247"
   width="883.84454"
   height="883.64453"
   viewBox="0 0 883.84455 883.64453"
   sodipodi:docname="logosvg.svg"
   inkscape:version="0.92.4 (5da689c313, 2019-01-14)"
   inkscape:export-filename="/home/david/Imágenes/danzarin.png"
   inkscape:export-xdpi="96"
   inkscape:export-ydpi="96">
  <metadata
     id="metadata253">
    <rdf:RDF>
      <cc:Work
         rdf:about="">
        <dc:format>image/svg+xml</dc:format>
        <dc:type
           rdf:resource="http://purl.org/dc/dcmitype/StillImage" />
        <dc:title></dc:title>
      </cc:Work>
    </rdf:RDF>
  </metadata>
  <defs
     id="defs251" />
  <sodipodi:namedview
     pagecolor="#ffffff"
     bordercolor="#666666"
     borderopacity="1"
     objecttolerance="10"
     gridtolerance="10"
     guidetolerance="10"
     inkscape:pageopacity="0"
     inkscape:pageshadow="2"
     inkscape:window-width="1250"
     inkscape:window-height="624"
     id="namedview249"
     showgrid="false"
     inkscape:zoom="0.21851852"
     inkscape:cx="1352.9641"
     inkscape:cy="110.31911"
     inkscape:window-x="43"
     inkscape:window-y="82"
     inkscape:window-maximized="0"
     inkscape:current-layer="svg247"
     fit-margin-top="0"
     fit-margin-left="0"
     fit-margin-right="0.2"
     fit-margin-bottom="0" />
  <circle
     style="opacity:1;fill:#ffffff;fill-opacity:1;stroke:#160e0d;stroke-width:5;stroke-miterlimit:4;stroke-dasharray:none;stroke-dashoffset:0;stroke-opacity:1"
     id="path3701"
     cx="441.82227"
     cy="441.82227"
     r="378.60175" />
  <path
     style="opacity:1;fill:#ff5555;fill-opacity:1;stroke:#160e0d;stroke-width:5;stroke-miterlimit:4;stroke-dasharray:none;stroke-dashoffset:0;stroke-opacity:1"
     d="M 441.82226,2.5 A 439.32205,439.32205 0 0 0 2.5,441.82227 439.32205,439.32205 0 0 0 441.82226,881.14454 439.32205,439.32205 0 0 0 881.14453,441.82227 439.32205,439.32205 0 0 0 441.82226,2.5 Z m 0,44.761719 c 103.29595,-5.3e-5 205.95678,42.521234 278.99805,115.562511 73.04127,73.04126 115.56255,175.70209 115.5625,278.99804 5e-5,103.29596 -42.52123,205.95678 -115.5625,278.99805 -73.04127,73.04127 -175.7021,115.56255 -278.99805,115.5625 -103.29594,5e-5 -205.95678,-42.52123 -278.99804,-115.5625 C 89.78295,647.77905 47.26166,545.11822 47.26172,441.82227 47.26167,338.52633 89.78295,235.86549 162.82422,162.82423 235.86548,89.782953 338.52632,47.261668 441.82226,47.261719 Z"
     id="path3694"
     inkscape:connector-curvature="0" />
  <g
     id="g57"
     transform="translate(1.1164391,3.6721877)">
    <circle
       r="172.58914"
       cy="379.66263"
       cx="380.8356"
       id="path3927"
       style="opacity:1;fill:#000000;fill-opacity:1;stroke:#160e0d;stroke-width:8.77951336;stroke-miterlimit:4;stroke-dasharray:none;stroke-dashoffset:0;stroke-opacity:1" />
    <path
       inkscape:connector-curvature="0"
       id="circle4508"
       d="M 380.83691,207.07527 A 172.58913,172.58913 0 0 0 208.24564,379.66292 172.58913,172.58913 0 0 0 245.05426,486.12676 172.58913,172.58913 0 0 0 364.34847,534.26779 172.58913,172.58913 0 0 0 536.93976,361.68014 172.58913,172.58913 0 0 0 500.13112,255.21266 172.58913,172.58913 0 0 0 380.83691,207.07527 Z"
       style="opacity:1;fill:#ffffff;fill-opacity:1;stroke:#160e0d;stroke-width:8.77951336;stroke-miterlimit:4;stroke-dasharray:none;stroke-dashoffset:0;stroke-opacity:1" />
    <path
       sodipodi:nodetypes="ccssaccssc"
       inkscape:connector-curvature="0"
       id="path4738"
       d="m 609.5396,284.01794 95.34446,-25.54747 c 0,0 32.30478,67.4787 36.06115,103.96696 6.20084,60.23335 10.797,123.5066 -10.59723,180.15282 -24.99272,66.17407 -72.76298,132.1183 -131.40561,175.91395 -39.221,29.29112 -137.76391,50.86669 -137.76391,50.86669 L 410.31177,640.08473 c 0,0 103.49784,-33.86625 142.00282,-69.94168 35.10721,-32.89204 61.77521,-78.05148 72.06114,-125.04726 11.5285,-52.67301 -14.83613,-161.07785 -14.83613,-161.07785 z"
       style="fill:none;stroke:#000000;stroke-width:9.26276016;stroke-linecap:butt;stroke-linejoin:miter;stroke-miterlimit:4;stroke-dasharray:none;stroke-opacity:1" />
    <path
       inkscape:connector-curvature="0"
       d="m 342.49501,212.03008 c -5.19567,5.36347 -10.22023,10.89347 -14.94098,16.68638 -6.00464,7.36862 -11.5947,14.9333 -18.3177,21.67614 -6.45839,6.93456 -12.71368,14.0288 -19.31697,20.83298 -6.091,4.97049 -9.08236,12.14998 -12.74626,18.87858 -4.2773,7.96516 -8.77902,15.80907 -11.85611,24.33027 -2.86888,8.09377 -2.92727,15.67278 -0.51973,23.7867 1.95396,7.99396 6.35762,14.43914 13.20132,18.9363 1.08372,0.81755 1.97906,1.9788 3.25119,2.45267 0.57059,0.21254 1.15049,-0.39917 1.72573,-0.59876 -17.95779,9.45533 -35.98686,18.7765 -53.87336,28.36597 -0.50664,0.27163 1.28298,0.0304 1.68117,-0.38418 0.97181,-1.01192 1.20849,-4.54405 1.34764,-5.54387 0.45665,-8.65142 -0.24665,-17.20528 1.46037,-25.73847 2.36582,-8.98712 5.76078,-17.62199 9.46372,-26.12691 3.76924,-9.00442 8.59143,-17.45584 13.5066,-25.86503 5.70846,-9.61291 13.20559,-17.93543 20.77736,-26.09085 7.73099,-7.84541 16.60618,-14.41115 24.59383,-21.98364 1.15366,-1.16648 2.06235,-2.64187 3.46099,-3.49943 18.36998,-11.26324 36.58974,-22.85555 55.7146,-32.78309 1.55719,-0.80833 4.39529,3.94714 4.72093,8.15954 0.19994,2.58635 -2.18859,6.8115 -3.17065,8.88527 -5.18145,8.79691 -9.89418,17.79761 -14.16742,27.06676 -3.37665,8.72124 -6.77688,17.424 -10.56661,25.97552 -4.25275,7.74089 -5.88343,16.26647 -7.59089,24.80568 -2.19366,8.19066 -3.42357,16.54466 -4.09069,24.98242 -0.23637,8.08744 -1.05051,16.26735 -0.15635,24.33186 -1.64529,-2.31473 3.68763,10.94265 3.82715,7.84046 0.0648,-1.44097 0.46528,-4.86741 -0.83627,-4.24567 -17.68144,8.44628 -34.06844,19.37098 -51.10268,29.05646 8.41498,-16.46033 15.2641,-33.43241 25.66238,-48.81252 8.30507,-11.5728 18.28736,-21.76301 28.31458,-31.8244 8.51986,-6.48312 14.44018,-17.06345 23.78356,-22.52103 18.7986,-10.98047 37.86757,-21.49135 56.80135,-32.23704 1.27412,1.0026 2.86372,1.70028 3.82232,3.00781 6.13061,8.36212 -1.68823,20.50086 -5.51433,27.98794 -5.35313,11.40293 -12.61291,21.5933 -20.09566,31.64956 -6.99013,9.37256 -14.03275,18.68156 -20.50209,28.42537 -4.17802,6.42239 -7.84965,13.41372 -9.18838,21.03788 -10.59941,-24.63824 0.49391,-4.47523 -54.06598,23.3717 -1.59929,0.81627 1.79384,-3.11097 2.6886,-4.66771 3.42521,-5.95925 6.9176,-11.86758 10.47507,-17.749 6.31048,-10.42192 13.00655,-20.46453 21.42595,-29.29628 7.79821,-6.38537 16.45887,-11.55353 24.38068,-17.8131 23.29175,-19.08436 49.0033,-33.06833 76.39252,-46.64618 1.28128,-0.63517 2.48034,1.42418 3.72052,2.13628 0.78774,1.62004 1.90549,3.11785 2.3632,4.86016 2.12386,8.08461 -4.7004,22.76065 -7.40259,30.37003 -4.49757,11.6917 -10.90434,22.45912 -14.84416,34.37251 -3.04002,8.37226 -5.24037,16.91345 -6.37399,25.74108 -0.29904,1.86263 -0.98546,5.82552 -1.15104,7.88894 -0.0185,0.22768 2.04625,-4.81632 0.0196,-3.8343 -31.77669,15.39769 -69.69448,40.32739 -48.09549,26.19933 8.14089,-6.99948 15.98641,-14.38744 23.64711,-21.91465 20.59554,-22.18 46.63684,-39.80744 76.09268,-48.61456 9.16522,-2.04264 16.5642,-3.129 23.32124,4.45365 4.46926,8.36629 0.5428,16.78371 -3.78099,24.29038 -5.85682,7.87649 -11.2604,16.02995 -15.46654,24.91117 -3.34269,8.678 -7.6626,16.8703 -11.81805,25.16651 -0.17562,0.41803 -0.24175,1.60648 -0.5271,1.25407 -0.7307,-0.90238 -0.75101,-2.19746 -1.1265,-3.29619 -17.82407,9.06967 -35.56615,18.30232 -53.47221,27.20901 -1.31722,0.65519 2.50391,-1.55315 3.67737,-2.44046 2.62442,-1.98448 6.11837,-5.27453 8.50885,-7.45108 17.25726,-17.41804 54.55439,-63.65711 69.95712,-35.34232 2.1229,7.48427 1.66198,15.42967 1.6404,23.1381 0,0 -55.55596,28.2918 -55.55596,28.2918 v 0 c 0.0111,-6.72017 0.18579,-13.5009 -0.78428,-20.16764 6.76619,42.31253 72.38697,-52.58739 45.818,-23.92923 -1.3451,1.45088 -2.57123,3.00769 -3.85686,4.51152 -21.86078,21.27899 -26.3361,22.5367 -68.97283,40.78475 -1.49953,0.64178 -2.15215,-2.56579 -2.63342,-4.12428 -0.27849,-0.90182 0.3327,-1.85813 0.49906,-2.7872 4.26607,-8.19078 8.86787,-16.16193 12.11159,-24.83602 3.61737,-9.33038 8.72225,-18.1313 15.0943,-25.85949 3.2121,-4.51438 8.06851,-10.73654 7.07206,-16.59241 -5.09979,-4.16577 -13.33111,-0.30396 -18.71218,1.28629 -20.69586,10.23199 -6.67028,3.40886 45.38323,-26.92903 1.36933,-0.79808 -2.75942,1.57235 -4.04411,2.50052 -4.22372,3.0515 -7.45137,7.10652 -11.08137,10.78828 -7.47799,7.7505 -15.69745,14.66528 -23.14927,22.45737 -17.90439,17.7172 -11.16833,11.58318 -60.13702,34.87109 -2.3718,1.12795 -5.37681,-4.88442 -5.59763,-6.21335 -0.32479,-1.95455 0.85265,-6.17344 1.2745,-7.99048 0.87553,-9.21363 2.5366,-18.29297 6.0848,-26.89946 3.54658,-12.35715 9.91611,-23.29759 15.30889,-34.89239 2.24411,-6.25537 4.50359,-12.55019 6.34331,-18.94075 0.4274,-1.48466 0.77058,-2.99288 1.1058,-4.50102 0.194,-0.87276 -0.0263,-1.90266 0.48122,-2.63868 0.20966,-0.30401 0.64815,0.35413 0.97222,0.5312 -12.14155,16.30123 -1.44671,1.67152 48.81636,-27.80833 1.6358,-0.95941 -3.39327,1.70248 -5.01936,2.67829 -4.64192,2.78561 -5.63769,3.88043 -9.93001,7.21221 -1.55168,1.20442 -3.12191,2.38475 -4.68287,3.57713 -7.61973,6.54447 -15.55256,12.67001 -24.44175,17.42664 -9.40246,7.77062 -16.17024,17.7622 -22.64493,28.00149 -12.83491,20.6531 -43.96903,87.53242 -71.54561,52.35018 -0.30323,-8.65704 4.88506,-17.29043 8.75317,-24.69265 6.5105,-9.75713 13.05938,-19.46647 20.36557,-28.65826 7.24002,-10.10406 15.57978,-19.49399 20.70935,-30.97909 2.81958,-5.0297 5.4259,-10.04098 7.54046,-15.41403 0.43285,-1.09988 1.28337,-4.20876 1.71,-3.10644 0.13301,0.3435 -0.25186,0.69228 -0.37778,1.03843 16.64531,-9.75976 33.29062,-19.5195 49.93593,-29.27925 -1.52335,0.92276 -3.12931,1.72119 -4.57004,2.76825 -7.41988,5.39248 -13.12994,12.80251 -19.90182,18.91695 -10.18709,10.00417 -20.46092,19.98535 -29.3962,31.15403 -10.9094,14.49596 -19.16159,30.4061 -24.52401,47.80638 -23.32509,15.11416 -55.92899,58.32084 -64.25943,21.73268 -1.3007,-8.4272 -0.39271,-17.02171 -0.29421,-25.5197 0.50338,-8.71357 1.36921,-17.42144 3.68679,-25.8693 2.26081,-8.72264 2.63833,-17.9809 7.11743,-26.06551 4.17463,-8.34558 7.55005,-17.08502 10.67725,-25.86819 4.02934,-9.46943 8.6579,-18.61394 13.90068,-27.46632 0.74567,-1.20831 1.4937,-2.41516 2.23698,-3.62491 0.50113,-0.81566 0.58557,-2.15618 1.49623,-2.45133 3.39006,-1.09875 1.17659,3.57863 2.53838,2.81597 47.08687,-26.37056 65.49252,-43.93118 47.02309,-26.78529 -7.42204,8.21029 -16.32209,14.81886 -24.75917,21.94064 -7.49569,7.82981 -15.03383,15.71883 -21.06472,24.76994 -5.03266,8.11482 -9.80221,16.35616 -13.77358,25.04607 -3.50797,8.34881 -7.40294,16.52579 -9.80342,25.29758 -2.78585,8.00279 -1.76074,16.18268 -1.7219,24.54311 -0.009,1.04099 0.51116,10.59162 -0.19396,11.01368 -47.14715,28.22108 -41.0022,42.71511 -62.52057,26.07788 -7.31408,-5.85925 -12.93919,-13.1099 -15.16931,-22.38478 -3.08544,-9.60477 -4.08263,-17.2625 -1.20275,-27.17221 2.5445,-8.97213 6.74613,-17.17996 11.38577,-25.24328 3.4704,-7.16104 6.69214,-14.81973 11.88215,-20.8512 7.29172,-6.14532 13.50589,-13.41775 19.5566,-20.77816 6.82278,-6.48036 13.01403,-13.18039 18.37211,-20.92941 2.38935,-2.93689 4.52132,-6.24751 7.02617,-9.0728 1.27965,-1.44336 4.10355,-3.63766 5.32713,-5.1299 0.71308,-0.86967 1.20469,-1.89943 1.80703,-2.84912 0,0 58.15882,-24.09018 58.15882,-24.09018 z"
       id="path4750"
       style="opacity:1;fill:#000000;fill-opacity:1;stroke:none;stroke-width:9.26276016;stroke-miterlimit:4;stroke-dasharray:none;stroke-dashoffset:0;stroke-opacity:1" />
    <g
       transform="matrix(1.751485,0.60353057,-0.60353057,1.751485,401.73722,75.785509)"
       id="g5108">
      <path
         style="fill:#000000;stroke:#000000;stroke-width:5;stroke-linecap:butt;stroke-linejoin:miter;stroke-miterlimit:4;stroke-dasharray:none;stroke-opacity:1"
         d="m 82.58883,295.71233 16.43989,61.3545 -73.56813,-42.47458 z"
         id="path4734"
         inkscape:connector-curvature="0" />
      <path
         inkscape:connector-curvature="0"
         style="opacity:1;fill:#ffffff;fill-opacity:1;stroke:none;stroke-width:5;stroke-miterlimit:4;stroke-dasharray:none;stroke-dashoffset:0;stroke-opacity:1"
         d="m 82.5894,295.71185 -44.65625,14.75781 a 165.88983,165.88983 0 0 0 52.88672,15.95898 z"
         id="path4762" />
    </g>
    <path
       style="fill:#000000;stroke:#000000;stroke-width:9.26276016;stroke-linecap:butt;stroke-linejoin:miter;stroke-miterlimit:4;stroke-dasharray:none;stroke-opacity:1"
       d="m 609.5396,284.01794 95.34446,-25.54747 c 0,0 32.30478,67.4787 36.06115,103.96696 6.20084,60.23335 10.797,123.5066 -10.59723,180.15282 -24.99272,66.17407 -72.76298,132.1183 -131.40561,175.91395 -39.221,29.29112 -137.76391,50.86669 -137.76391,50.86669 L 410.31177,640.08473 c 0,0 103.49784,-33.86625 142.00282,-69.94168 35.10721,-32.89204 61.77521,-78.05148 72.06114,-125.04726 11.5285,-52.67301 -14.83613,-161.07785 -14.83613,-161.07785 z"
       id="path4764"
       inkscape:connector-curvature="0"
       sodipodi:nodetypes="ccssaccssc" />
    <g
       transform="matrix(1.3628084,-1.2548713,1.2548713,1.3628084,240.38754,411.78342)"
       id="g5112">
      <path
         style="fill:#000000;stroke:#000000;stroke-width:5;stroke-linecap:butt;stroke-linejoin:miter;stroke-miterlimit:4;stroke-dasharray:none;stroke-opacity:1"
         d="M 216.07022,5.28919 207.17146,60.2997 252.47423,42.50218 Z"
         id="path4736"
         inkscape:connector-curvature="0" />
      <path
         inkscape:connector-curvature="0"
         style="fill:#ffffff;stroke:none;stroke-width:5;stroke-linecap:butt;stroke-linejoin:miter;stroke-miterlimit:4;stroke-dasharray:none;stroke-opacity:1"
         d="m 212.02104,30.31732 -4.84961,29.98242 26.3789,-10.36328 A 165.88983,165.88983 0 0 0 212.02104,30.31732 Z"
         id="path4788" />
    </g>
    <path
       id="path4790"
       d="m 676.11912,266.17769 -66.5797,17.84167 c 0,0 26.36339,108.40494 14.83488,161.07795 -10.28592,46.99578 -36.95415,92.15522 -72.06136,125.04726 -38.50498,36.07543 -142.00247,69.94108 -142.00247,69.94108 l 33.33508,84.71808 A 307.31953,307.31953 0 0 0 717.63149,419.66092 307.31953,307.31953 0 0 0 676.11912,266.17769 Z"
       style="fill:#fffdfd;fill-opacity:1;stroke:none;stroke-width:9.26276016;stroke-linecap:butt;stroke-linejoin:miter;stroke-miterlimit:4;stroke-dasharray:none;stroke-opacity:1"
       inkscape:connector-curvature="0" />
  </g>
</svg>
